…
```
## The following objects are masked from 'package:base':
## 
##     intersect, setdiff, setequal, union
```

```r
activity_na <- activity[complete.cases(activity$steps),]
activity_nagroupdate<- group_by(activity_na, date)
activity_nasum <- summarise(activity_nagroupdate, steps_sum=sum(steps))
activity_nasum
```

```
## # A tibble: 53 x 2
##    date       steps_sum
##    <fct>          <int>
##  1 2012-10-02       126
##  2 2012-10-03     11352
##  3 2012-10-04     12116
##  4 2012-10-05     13294
##  5 2012-10-06     15420
##  6 2012-10-07     11015
##  7 2012-10-09     12811
##  8 2012-10-10      9900
##  9 2012-10-11     10304
## 10 2012-10-12     17382
## # ... with 43 more rows
```
…
## What is the average daily activity pattern?


```r
library(dplyr)
activity_na <- activity[complete.cases(activity$steps),]
activity_nagroupint<- group_by(activity_na, interval)
activity_naavg <- summarise(activity_nagroupint, steps_avg=mean(steps))
activity_naavg
```

```
## # A tibble: 288 x 2
##    interval steps_avg
##       <int>     <dbl>
##  1        0    1.72  
##  2        5    0.340 
##  3       10    0.132 
##  4       15    0.151 
##  5       20    0.0755
##  6       25    2.09  
##  7       30    0.528 
##  8       35    0.868 
##  9       40    0     
## 10       45    1.47  
## # ... with 278 more rows
```
…
4. Total number of steps taken each day after missing values are imputed:


```r
activity_groupdate<- group_by(activity_im, date)
activity_sum <- summarise(activity_groupdate, steps_sum=sum(steps))
activity_sum
```

```
## # A tibble: 61 x 2
##    date       steps_sum
##    <fct>          <dbl>
##  1 2012-10-01    10766.
##  2 2012-10-02      126 
##  3 2012-10-03    11352 
##  4 2012-10-04    12116 
##  5 2012-10-05    13294 
##  6 2012-10-06    15420 
##  7 2012-10-07    11015 
##  8 2012-10-08    10766.
##  9 2012-10-09    12811 
## 10 2012-10-10     9900 
## # ... with 51 more rows
```
…
